…
First I will untidy the data, where for each ID, I will put the mean values, se values, and worst values grouped into one column, where it will be clear that instead of each row being a separate observation per ID, each ID/observation will now be repeated over several rows, meaning that the data set is no longer tidy. We end up with significantly more rows, but a lot less columns. I use the pivot_longer() function

```r
untidy_cancer <- cancer_sample %>% 
  pivot_longer(cols = c(-ID, -diagnosis), 
              names_to = "tumor_features", 
              values_to = "values")
print(untidy_cancer)
```

```
## # A tibble: 17,070 x 4
##        ID diagnosis tumor_features            values
##     <dbl> <chr>     <chr>                      <dbl>
##  1 842302 M         radius_mean              18.0   
##  2 842302 M         texture_mean             10.4   
##  3 842302 M         perimeter_mean          123.    
##  4 842302 M         area_mean              1001     
##  5 842302 M         smoothness_mean           0.118 
##  6 842302 M         compactness_mean          0.278 
##  7 842302 M         concavity_mean            0.300 
##  8 842302 M         concave_points_mean       0.147 
##  9 842302 M         symmetry_mean             0.242 
## 10 842302 M         fractal_dimension_mean    0.0787
## # ... with 17,060 more rows
```

and then tidy it again with the pivot wider() function, where each id/observation will take one row again 

```r
tidy_cancer <- untidy_cancer %>%
  pivot_wider(id_cols = c(-tumor_features, -values), 
              names_from = tumor_features, 
              values_from = values)
print(tidy_cancer)
```

```
## # A tibble: 569 x 32
##          ID diagnosis radius_mean texture_mean perimeter_mean area_mean
##       <dbl> <chr>           <dbl>        <dbl>          <dbl>     <dbl>
##  1   842302 M                18.0         10.4          123.      1001 
##  2   842517 M                20.6         17.8          133.      1326 
##  3 84300903 M                19.7         21.2          130       1203 
##  4 84348301 M                11.4         20.4           77.6      386.
##  5 84358402 M                20.3         14.3          135.      1297 
##  6   843786 M                12.4         15.7           82.6      477.
##  7   844359 M                18.2         20.0          120.      1040 
##  8 84458202 M                13.7         20.8           90.2      578.
##  9   844981 M                13           21.8           87.5      520.
## 10 84501001 M                12.5         24.0           84.0      476.
## # ... with 559 more rows, and 26 more variables: smoothness_mean <dbl>,
## #   compactness_mean <dbl>, concavity_mean <dbl>, concave_points_mean <dbl>,
## #   symmetry_mean <dbl>, fractal_dimension_mean <dbl>, radius_se <dbl>,
## #   texture_se <dbl>, perimeter_se <dbl>, area_se <dbl>, smoothness_se <dbl>,
## #   compactness_se <dbl>, concavity_se <dbl>, concave_points_se <dbl>,
## #   symmetry_se <dbl>, fractal_dimension_se <dbl>, radius_worst <dbl>,
## #   texture_worst <dbl>, perimeter_worst <dbl>, area_worst <dbl>, ...
```
…
